EESchema Schematic File Version 4
EELAYER 26 0
EELAYER END
$Descr A2 23386 16535
encoding utf-8
Sheet 2 2
Title ""
Date ""
Rev ""
Comp ""
Comment1 ""
Comment2 ""
Comment3 ""
Comment4 ""
$EndDescr
$Comp
L keyboard_parts:ATMEGA32U4 U1
U 1 1 21A1
P 8550 8000
F 0 "U1" H 8575 9337 60  0000 C CNN
F 1 "ATMEGA32U4" H 8575 9231 60  0000 C CNN
F 2 "Package_QFP:TQFP-44_10x10mm_P0.8mm" H 8550 8000 60  0001 C CNN
F 3 "" H 8550 8000 60  0000 C CNN
	1    8550 8000
	1    0    0    -1
$EndComp
Text GLabel 7500 7650 0    50   Input ~ 0
row0
Text GLabel 7500 7750 0    50   Input ~ 0
row1
Text GLabel 7500 7850 0    50   Input ~ 0
row2
Text GLabel 7500 7950 0    50   Input ~ 0
row3
Text GLabel 9650 8550 2    50   Input ~ 0
row4
Text GLabel 9650 8450 2    50   Input ~ 0
col0
Text GLabel 9650 8350 2    50   Input ~ 0
col1
Text GLabel 7500 8050 0    50   Input ~ 0
col2
Text GLabel 9650 8250 2    50   Input ~ 0
col3
Text GLabel 9650 8150 2    50   Input ~ 0
col4
Text GLabel 7500 8650 0    50   Input ~ 0
col5
Text GLabel 7500 8750 0    50   Input ~ 0
col6
Text GLabel 7500 8850 0    50   Input ~ 0
col7
Text GLabel 7500 8950 0    50   Input ~ 0
col8
Text GLabel 9650 8850 2    50   Input ~ 0
col9
Text GLabel 7500 9050 0    50   Input ~ 0
col10
Text GLabel 9650 8750 2    50   Input ~ 0
col11
Text GLabel 9650 8650 2    50   Input ~ 0
col12
Text GLabel 9650 7250 2    50   Input ~ 0
col13
Text GLabel 9650 7350 2    50   Input ~ 0
col14
Text GLabel 9650 7450 2    50   Input ~ 0
col15
Text GLabel 9650 7550 2    50   Input ~ 0
col16
Text GLabel 9650 7650 2    50   Input ~ 0
col17
Text GLabel 9650 7750 2    50   Input ~ 0
col18
$Comp
L keyboard_parts:USB_mini_micro_B J1
U 1 1 14A1
P 6550 7200
F 0 "J1" H 6432 7491 60  0000 C CNN
F 1 "USB_mini_micro_B" H 6400 7400 60  0001 C CNN
F 2 "keyboard_parts:USB_miniB_hirose_5S8" H 6500 7200 60  0001 C CNN
F 3 "" H 6500 7200 60  0000 C CNN
	1    6550 7200
	1    0    0    -1
$EndComp
$Comp
L Device:R R3
U 1 1 37B1
P 7200 7150
F 0 "R3" V 7200 7100 39  0000 C CNN
F 1 "22" V 7200 7200 39  0000 C CNN
F 2 "Resistor_SMD:R_0805_2012Metric_Pad1.15x1.40mm_HandSolder" V 7130 7150 50  0001 C CNN
F 3 "~" H 7200 7150 50  0001 C CNN
	1    7200 7150
	0    1    1    0
$EndComp
$Comp
L Device:R R4
U 1 1 37B1
P 7200 7250
F 0 "R3" V 7200 7200 39  0000 C CNN
F 1 "22" V 7200 7300 39  0000 C CNN
F 2 "Resistor_SMD:R_0805_2012Metric_Pad1.15x1.40mm_HandSolder" V 7130 7250 50  0001 C CNN
F 3 "~" H 7200 7250 50  0001 C CNN
	1    7200 7250
	0    1    1    0
$EndComp
$Comp
L Device:C_Small C8
U 1 1 1341
P 7300 7450
F 0 "C8" V 7350 7550 50  0000 C CNN
F 1 "1u" V 7350 7350 50  0000 C CNN
F 2 "Capacitor_SMD:C_0805_2012Metric_Pad1.15x1.40mm_HandSolder" H 7300 7450 50  0001 C CNN
F 3 "~" H 7300 7450 50  0001 C CNN
	1    7300 7450
	0    1    1    0
$EndComp
$Comp
L power:VCC #PWR0101
U 1 1 13C1
P 6850 6850
F 0 "#PWR0107" H 6850 6700 50  0001 C CNN
F 1 "VCC" H 6867 7023 50  0000 C CNN
F 2 "" H 6850 6850 50  0001 C CNN
F 3 "" H 6850 6850 50  0001 C CNN
	1    6850 6850
	1    0    0    -1
$EndComp
NoConn ~ 7500 6950

Text GLabel 900 1400 0    50   Input ~ 0
row0
Wire Wire Line
	900 1400 1150 1400

Text GLabel 1800 650 0    50   Input ~ 0
col0
Wire Wire Line
	1800 650 1800 1000

$Comp
L keyboard_parts:KEYSW K_F11
U 1 1 01
P 1500 1000
F 0 "K_F11" H 1500 1233 60  0000 C CNN
F 1 "KEYSW" H 1500 900 60  0001 C CNN
F 2 "MX_Alps_Hybrid:MX-1U-NoLED" H 1500 1000 60  0001 C CNN
F 3 "" H 1500 1000 60  0000 C CNN
	1    1500 1000
	1    0    0    -1
$EndComp
$Comp
L Device:D D_F11
U 1 1 00
P 1150 1250
F 0 "D_F11" V 1196 1171 50  0000 R CNN
F 1 "D" V 1095 1171 50  0000 R CNN
F 2 "keyboard_parts:D_SOD123_axial" H 1150 1250 50  0001 C CNN
F 3 "~" H 1150 1250 50  0001 C CNN
	1    1150  1250
	0    -1   -1   0
$EndComp
Wire Wire Line
	1200 1000 1150 1000
Wire Wire Line
	1150 1000 1150 1100
Connection ~ 1800 1000
Connection ~ 1150 1400

Text GLabel 2800 650 0    50   Input ~ 0
col1
Wire Wire Line
	2800 650 2800 1000

$Comp
L keyboard_parts:KEYSW K_F12
U 1 1 11
P 2500 1000
F 0 "K_F12" H 2500 1233 60  0000 C CNN
F 1 "KEYSW" H 2500 900 60  0001 C CNN
F 2 "MX_Alps_Hybrid:MX-1U-NoLED" H 2500 1000 60  0001 C CNN
F 3 "" H 2500 1000 60  0000 C CNN
	1    2500 1000
	1    0    0    -1
$EndComp
$Comp
L Device:D D_F12
U 1 1 10
P 2150 1250
F 0 "D_F12" V 2196 1171 50  0000 R CNN
F 1 "D" V 2095 1171 50  0000 R CNN
F 2 "keyboard_parts:D_SOD123_axial" H 2150 1250 50  0001 C CNN
F 3 "~" H 2150 1250 50  0001 C CNN
	1    2150  1250
	0    -1   -1   0
$EndComp
Wire Wire Line
	2200 1000 2150 1000
Wire Wire Line
	2150 1000 2150 1100
Connection ~ 2800 1000
Connection ~ 2150 1400

Text GLabel 3800 650 0    50   Input ~ 0
col2
Wire Wire Line
	3800 650 3800 1000

Text GLabel 4800 650 0    50   Input ~ 0
col3
Wire Wire Line
	4800 650 4800 1000

$Comp
L keyboard_parts:KEYSW K_ESC
U 1 1 21
P 4500 1000
F 0 "K_ESC" H 4500 1233 60  0000 C CNN
F 1 "KEYSW" H 4500 900 60  0001 C CNN
F 2 "MX_Alps_Hybrid:MX-1U-NoLED" H 4500 1000 60  0001 C CNN
F 3 "" H 4500 1000 60  0000 C CNN
	1    4500 1000
	1    0    0    -1
$EndComp
$Comp
L Device:D D_ESC
U 1 1 20
P 4150 1250
F 0 "D_ESC" V 4196 1171 50  0000 R CNN
F 1 "D" V 4095 1171 50  0000 R CNN
F 2 "keyboard_parts:D_SOD123_axial" H 4150 1250 50  0001 C CNN
F 3 "~" H 4150 1250 50  0001 C CNN
	1    4150  1250
	0    -1   -1   0
$EndComp
Wire Wire Line
	4200 1000 4150 1000
Wire Wire Line
	4150 1000 4150 1100
Connection ~ 4800 1000
Connection ~ 4150 1400

Text GLabel 5800 650 0    50   Input ~ 0
col4
Wire Wire Line
	5800 650 5800 1000

$Comp
L keyboard_parts:KEYSW K_1
U 1 1 31
P 5500 1000
F 0 "K_1" H 5500 1233 60  0000 C CNN
F 1 "KEYSW" H 5500 900 60  0001 C CNN
F 2 "MX_Alps_Hybrid:MX-1U-NoLED" H 5500 1000 60  0001 C CNN
F 3 "" H 5500 1000 60  0000 C CNN
	1    5500 1000
	1    0    0    -1
$EndComp
$Comp
L Device:D D_1
U 1 1 30
P 5150 1250
F 0 "D_1" V 5196 1171 50  0000 R CNN
F 1 "D" V 5095 1171 50  0000 R CNN
F 2 "keyboard_parts:D_SOD123_axial" H 5150 1250 50  0001 C CNN
F 3 "~" H 5150 1250 50  0001 C CNN
	1    5150  1250
	0    -1   -1   0
$EndComp
Wire Wire Line
	5200 1000 5150 1000
Wire Wire Line
	5150 1000 5150 1100
Connection ~ 5800 1000
Connection ~ 5150 1400

Text GLabel 6800 650 0    50   Input ~ 0
col5
Wire Wire Line
	6800 650 6800 1000

$Comp
L keyboard_parts:KEYSW K_2
U 1 1 41
P 6500 1000
F 0 "K_2" H 6500 1233 60  0000 C CNN
F 1 "KEYSW" H 6500 900 60  0001 C CNN
F 2 "MX_Alps_Hybrid:MX-1U-NoLED" H 6500 1000 60  0001 C CNN
F 3 "" H 6500 1000 60  0000 C CNN
	1    6500 1000
	1    0    0    -1
$EndComp
$Comp
L Device:D D_2
U 1 1 40
P 6150 1250
F 0 "D_2" V 6196 1171 50  0000 R CNN
F 1 "D" V 6095 1171 50  0000 R CNN
F 2 "keyboard_parts:D_SOD123_axial" H 6150 1250 50  0001 C CNN
F 3 "~" H 6150 1250 50  0001 C CNN
	1    6150  1250
	0    -1   -1   0
$EndComp
Wire Wire Line
	6200 1000 6150 1000
Wire Wire Line
	6150 1000 6150 1100
Connection ~ 6800 1000
Connection ~ 6150 1400

Text GLabel 7800 650 0    50   Input ~ 0
col6
Wire Wire Line
	7800 650 7800 1000

$Comp
L keyboard_parts:KEYSW K_3
U 1 1 51
P 7500 1000
F 0 "K_3" H 7500 1233 60  0000 C CNN
F 1 "KEYSW" H 7500 900 60  0001 C CNN
F 2 "MX_Alps_Hybrid:MX-1U-NoLED" H 7500 1000 60  0001 C CNN
F 3 "" H 7500 1000 60  0000 C CNN
	1    7500 1000
	1    0    0    -1
$EndComp
$Comp
L Device:D D_3
U 1 1 50
P 7150 1250
F 0 "D_3" V 7196 1171 50  0000 R CNN
F 1 "D" V 7095 1171 50  0000 R CNN
F 2 "keyboard_parts:D_SOD123_axial" H 7150 1250 50  0001 C CNN
F 3 "~" H 7150 1250 50  0001 C CNN
	1    7150  1250
	0    -1   -1   0
$EndComp
Wire Wire Line
	7200 1000 7150 1000
Wire Wire Line
	7150 1000 7150 1100
Connection ~ 7800 1000
Connection ~ 7150 1400

Text GLabel 8800 650 0    50   Input ~ 0
col7
Wire Wire Line
	8800 650 8800 1000

$Comp
L keyboard_parts:KEYSW K_4
U 1 1 61
P 8500 1000
F 0 "K_4" H 8500 1233 60  0000 C CNN
F 1 "KEYSW" H 8500 900 60  0001 C CNN
F 2 "MX_Alps_Hybrid:MX-1U-NoLED" H 8500 1000 60  0001 C CNN
F 3 "" H 8500 1000 60  0000 C CNN
	1    8500 1000
	1    0    0    -1
$EndComp
$Comp
L Device:D D_4
U 1 1 60
P 8150 1250
F 0 "D_4" V 8196 1171 50  0000 R CNN
F 1 "D" V 8095 1171 50  0000 R CNN
F 2 "keyboard_parts:D_SOD123_axial" H 8150 1250 50  0001 C CNN
F 3 "~" H 8150 1250 50  0001 C CNN
	1    8150  1250
	0    -1   -1   0
$EndComp
Wire Wire Line
	8200 1000 8150 1000
Wire Wire Line
	8150 1000 8150 1100
Connection ~ 8800 1000
Connection ~ 8150 1400

Text GLabel 9800 650 0    50   Input ~ 0
col8
Wire Wire Line
	9800 650 9800 1000

$Comp
L keyboard_parts:KEYSW K_5
U 1 1 71
P 9500 1000
F 0 "K_5" H 9500 1233 60  0000 C CNN
F 1 "KEYSW" H 9500 900 60  0001 C CNN
F 2 "MX_Alps_Hybrid:MX-1U-NoLED" H 9500 1000 60  0001 C CNN
F 3 "" H 9500 1000 60  0000 C CNN
	1    9500 1000
	1    0    0    -1
$EndComp
$Comp
L Device:D D_5
U 1 1 70
P 9150 1250
F 0 "D_5" V 9196 1171 50  0000 R CNN
F 1 "D" V 9095 1171 50  0000 R CNN
F 2 "keyboard_parts:D_SOD123_axial" H 9150 1250 50  0001 C CNN
F 3 "~" H 9150 1250 50  0001 C CNN
	1    9150  1250
	0    -1   -1   0
$EndComp
Wire Wire Line
	9200 1000 9150 1000
Wire Wire Line
	9150 1000 9150 1100
Connection ~ 9800 1000
Connection ~ 9150 1400

Text GLabel 10800 650 0    50   Input ~ 0
col9
Wire Wire Line
	10800 650 10800 1000

$Comp
L keyboard_parts:KEYSW K_6
U 1 1 81
P 10500 1000
F 0 "K_6" H 10500 1233 60  0000 C CNN
F 1 "KEYSW" H 10500 900 60  0001 C CNN
F 2 "MX_Alps_Hybrid:MX-1U-NoLED" H 10500 1000 60  0001 C CNN
F 3 "" H 10500 1000 60  0000 C CNN
	1    10500 1000
	1    0    0    -1
$EndComp
$Comp
L Device:D D_6
U 1 1 80
P 10150 1250
F 0 "D_6" V 10196 1171 50  0000 R CNN
F 1 "D" V 10095 1171 50  0000 R CNN
F 2 "keyboard_parts:D_SOD123_axial" H 10150 1250 50  0001 C CNN
F 3 "~" H 10150 1250 50  0001 C CNN
	1    10150  1250
	0    -1   -1   0
$EndComp
Wire Wire Line
	10200 1000 10150 1000
Wire Wire Line
	10150 1000 10150 1100
Connection ~ 10800 1000
Connection ~ 10150 1400

Text GLabel 11800 650 0    50   Input ~ 0
col10
Wire Wire Line
	11800 650 11800 1000

$Comp
L keyboard_parts:KEYSW K_7
U 1 1 91
P 11500 1000
F 0 "K_7" H 11500 1233 60  0000 C CNN
F 1 "KEYSW" H 11500 900 60  0001 C CNN
F 2 "MX_Alps_Hybrid:MX-1U-NoLED" H 11500 1000 60  0001 C CNN
F 3 "" H 11500 1000 60  0000 C CNN
	1    11500 1000
	1    0    0    -1
$EndComp
$Comp
L Device:D D_7
U 1 1 90
P 11150 1250
F 0 "D_7" V 11196 1171 50  0000 R CNN
F 1 "D" V 11095 1171 50  0000 R CNN
F 2 "keyboard_parts:D_SOD123_axial" H 11150 1250 50  0001 C CNN
F 3 "~" H 11150 1250 50  0001 C CNN
	1    11150  1250
	0    -1   -1   0
$EndComp
Wire Wire Line
	11200 1000 11150 1000
Wire Wire Line
	11150 1000 11150 1100
Connection ~ 11800 1000
Connection ~ 11150 1400

Text GLabel 12800 650 0    50   Input ~ 0
col11
Wire Wire Line
	12800 650 12800 1000

$Comp
L keyboard_parts:KEYSW K_8
U 1 1 a1
P 12500 1000
F 0 "K_8" H 12500 1233 60  0000 C CNN
F 1 "KEYSW" H 12500 900 60  0001 C CNN
F 2 "MX_Alps_Hybrid:MX-1U-NoLED" H 12500 1000 60  0001 C CNN
F 3 "" H 12500 1000 60  0000 C CNN
	1    12500 1000
	1    0    0    -1
$EndComp
$Comp
L Device:D D_8
U 1 1 a0
P 12150 1250
F 0 "D_8" V 12196 1171 50  0000 R CNN
F 1 "D" V 12095 1171 50  0000 R CNN
F 2 "keyboard_parts:D_SOD123_axial" H 12150 1250 50  0001 C CNN
F 3 "~" H 12150 1250 50  0001 C CNN
	1    12150  1250
	0    -1   -1   0
$EndComp
Wire Wire Line
	12200 1000 12150 1000
Wire Wire Line
	12150 1000 12150 1100
Connection ~ 12800 1000
Connection ~ 12150 1400

Text GLabel 13800 650 0    50   Input ~ 0
col12
Wire Wire Line
	13800 650 13800 1000

$Comp
L keyboard_parts:KEYSW K_9
U 1 1 b1
P 13500 1000
F 0 "K_9" H 13500 1233 60  0000 C CNN
F 1 "KEYSW" H 13500 900 60  0001 C CNN
F 2 "MX_Alps_Hybrid:MX-1U-NoLED" H 13500 1000 60  0001 C CNN
F 3 "" H 13500 1000 60  0000 C CNN
	1    13500 1000
	1    0    0    -1
$EndComp
$Comp
L Device:D D_9
U 1 1 b0
P 13150 1250
F 0 "D_9" V 13196 1171 50  0000 R CNN
F 1 "D" V 13095 1171 50  0000 R CNN
F 2 "keyboard_parts:D_SOD123_axial" H 13150 1250 50  0001 C CNN
F 3 "~" H 13150 1250 50  0001 C CNN
	1    13150  1250
	0    -1   -1   0
$EndComp
Wire Wire Line
	13200 1000 13150 1000
Wire Wire Line
	13150 1000 13150 1100
Connection ~ 13800 1000
Connection ~ 13150 1400

Text GLabel 14800 650 0    50   Input ~ 0
col13
Wire Wire Line
	14800 650 14800 1000

$Comp
L keyboard_parts:KEYSW K_0
U 1 1 c1
P 14500 1000
F 0 "K_0" H 14500 1233 60  0000 C CNN
F 1 "KEYSW" H 14500 900 60  0001 C CNN
F 2 "MX_Alps_Hybrid:MX-1U-NoLED" H 14500 1000 60  0001 C CNN
F 3 "" H 14500 1000 60  0000 C CNN
	1    14500 1000
	1    0    0    -1
$EndComp
$Comp
L Device:D D_0
U 1 1 c0
P 14150 1250
F 0 "D_0" V 14196 1171 50  0000 R CNN
F 1 "D" V 14095 1171 50  0000 R CNN
F 2 "keyboard_parts:D_SOD123_axial" H 14150 1250 50  0001 C CNN
F 3 "~" H 14150 1250 50  0001 C CNN
	1    14150  1250
	0    -1   -1   0
$EndComp
Wire Wire Line
	14200 1000 14150 1000
Wire Wire Line
	14150 1000 14150 1100
Connection ~ 14800 1000
Connection ~ 14150 1400

Text GLabel 15800 650 0    50   Input ~ 0
col14
Wire Wire Line
	15800 650 15800 1000

$Comp
L keyboard_parts:KEYSW K_MINUS
U 1 1 d1
P 15500 1000
F 0 "K_MINUS" H 15500 1233 60  0000 C CNN
F 1 "KEYSW" H 15500 900 60  0001 C CNN
F 2 "MX_Alps_Hybrid:MX-1U-NoLED" H 15500 1000 60  0001 C CNN
F 3 "" H 15500 1000 60  0000 C CNN
	1    15500 1000
	1    0    0    -1
$EndComp
$Comp
L Device:D D_MINUS
U 1 1 d0
P 15150 1250
F 0 "D_MINUS" V 15196 1171 50  0000 R CNN
F 1 "D" V 15095 1171 50  0000 R CNN
F 2 "keyboard_parts:D_SOD123_axial" H 15150 1250 50  0001 C CNN
F 3 "~" H 15150 1250 50  0001 C CNN
	1    15150  1250
	0    -1   -1   0
$EndComp
Wire Wire Line
	15200 1000 15150 1000
Wire Wire Line
	15150 1000 15150 1100
Connection ~ 15800 1000
Connection ~ 15150 1400

Text GLabel 16800 650 0    50   Input ~ 0
col15
Wire Wire Line
	16800 650 16800 1000

$Comp
L keyboard_parts:KEYSW K_EQUAL
U 1 1 e1
P 16500 1000
F 0 "K_EQUAL" H 16500 1233 60  0000 C CNN
F 1 "KEYSW" H 16500 900 60  0001 C CNN
F 2 "MX_Alps_Hybrid:MX-1U-NoLED" H 16500 1000 60  0001 C CNN
F 3 "" H 16500 1000 60  0000 C CNN
	1    16500 1000
	1    0    0    -1
$EndComp
$Comp
L Device:D D_EQUAL
U 1 1 e0
P 16150 1250
F 0 "D_EQUAL" V 16196 1171 50  0000 R CNN
F 1 "D" V 16095 1171 50  0000 R CNN
F 2 "keyboard_parts:D_SOD123_axial" H 16150 1250 50  0001 C CNN
F 3 "~" H 16150 1250 50  0001 C CNN
	1    16150  1250
	0    -1   -1   0
$EndComp
Wire Wire Line
	16200 1000 16150 1000
Wire Wire Line
	16150 1000 16150 1100
Connection ~ 16800 1000
Connection ~ 16150 1400

Text GLabel 17800 650 0    50   Input ~ 0
col16
Wire Wire Line
	17800 650 17800 1000

$Comp
L keyboard_parts:KEYSW K_BSLSH
U 1 1 f1
P 17500 1000
F 0 "K_BSLSH" H 17500 1233 60  0000 C CNN
F 1 "KEYSW" H 17500 900 60  0001 C CNN
F 2 "MX_Alps_Hybrid:MX-1U-NoLED" H 17500 1000 60  0001 C CNN
F 3 "" H 17500 1000 60  0000 C CNN
	1    17500 1000
	1    0    0    -1
$EndComp
$Comp
L Device:D D_BSLSH
U 1 1 f0
P 17150 1250
F 0 "D_BSLSH" V 17196 1171 50  0000 R CNN
F 1 "D" V 17095 1171 50  0000 R CNN
F 2 "keyboard_parts:D_SOD123_axial" H 17150 1250 50  0001 C CNN
F 3 "~" H 17150 1250 50  0001 C CNN
	1    17150  1250
	0    -1   -1   0
$EndComp
Wire Wire Line
	17200 1000 17150 1000
Wire Wire Line
	17150 1000 17150 1100
Connection ~ 17800 1000
Connection ~ 17150 1400

Text GLabel 18800 650 0    50   Input ~ 0
col17
Wire Wire Line
	18800 650 18800 1000

Text GLabel 19800 650 0    50   Input ~ 0
col18
Wire Wire Line
	19800 650 19800 1000

$Comp
L keyboard_parts:KEYSW K_`
U 1 1 101
P 19500 1000
F 0 "K_`" H 19500 1233 60  0000 C CNN
F 1 "KEYSW" H 19500 900 60  0001 C CNN
F 2 "MX_Alps_Hybrid:MX-1U-NoLED" H 19500 1000 60  0001 C CNN
F 3 "" H 19500 1000 60  0000 C CNN
	1    19500 1000
	1    0    0    -1
$EndComp
$Comp
L Device:D D_`
U 1 1 100
P 19150 1250
F 0 "D_`" V 19196 1171 50  0000 R CNN
F 1 "D" V 19095 1171 50  0000 R CNN
F 2 "keyboard_parts:D_SOD123_axial" H 19150 1250 50  0001 C CNN
F 3 "~" H 19150 1250 50  0001 C CNN
	1    19150  1250
	0    -1   -1   0
$EndComp
Wire Wire Line
	19200 1000 19150 1000
Wire Wire Line
	19150 1000 19150 1100
Connection ~ 19800 1000
Connection ~ 19150 1400

Wire Wire Line
	1150 1400 19150 1400

Text GLabel 900 2400 0    50   Input ~ 0
row1
Wire Wire Line
	900 2400 1150 2400

$Comp
L keyboard_parts:KEYSW K_&lt;I
U 1 1 121
P 1500 2000
F 0 "K_&lt;I" H 1500 2233 60  0000 C CNN
F 1 "KEYSW" H 1500 1900 60  0001 C CNN
F 2 "MX_Alps_Hybrid:MX-1U-NoLED" H 1500 2000 60  0001 C CNN
F 3 "" H 1500 2000 60  0000 C CNN
	1    1500 2000
	1    0    0    -1
$EndComp
$Comp
L Device:D D_&lt;I
U 1 1 120
P 1150 2250
F 0 "D_&lt;I" V 1196 2171 50  0000 R CNN
F 1 "D" V 1095 2171 50  0000 R CNN
F 2 "keyboard_parts:D_SOD123_axial" H 1150 2250 50  0001 C CNN
F 3 "~" H 1150 2250 50  0001 C CNN
	1    1150  2250
	0    -1   -1   0
$EndComp
Wire Wire Line
	1200 2000 1150 2000
Wire Wire Line
	1150 2000 1150 2100
Connection ~ 1800 2000
Connection ~ 1150 2400

$Comp
L keyboard_parts:KEYSW K_&lt;I1
U 1 1 131
P 2500 2000
F 0 "K_&lt;I1" H 2500 2233 60  0000 C CNN
F 1 "KEYSW" H 2500 1900 60  0001 C CNN
F 2 "MX_Alps_Hybrid:MX-1U-NoLED" H 2500 2000 60  0001 C CNN
F 3 "" H 2500 2000 60  0000 C CNN
	1    2500 2000
	1    0    0    -1
$EndComp
$Comp
L Device:D D_&lt;I1
U 1 1 130
P 2150 2250
F 0 "D_&lt;I1" V 2196 2171 50  0000 R CNN
F 1 "D" V 2095 2171 50  0000 R CNN
F 2 "keyboard_parts:D_SOD123_axial" H 2150 2250 50  0001 C CNN
F 3 "~" H 2150 2250 50  0001 C CNN
	1    2150  2250
	0    -1   -1   0
$EndComp
Wire Wire Line
	2200 2000 2150 2000
Wire Wire Line
	2150 2000 2150 2100
Connection ~ 2800 2000
Connection ~ 2150 2400

$Comp
L keyboard_parts:KEYSW K_SPACE
U 1 1 141
P 4500 2000
F 0 "K_SPACE" H 4500 2233 60  0000 C CNN
F 1 "KEYSW" H 4500 1900 60  0001 C CNN
F 2 "MX_Alps_Hybrid:MX-1.5U-NoLED" H 4500 2000 60  0001 C CNN
F 3 "" H 4500 2000 60  0000 C CNN
	1    4500 2000
	1    0    0    -1
$EndComp
$Comp
L Device:D D_SPACE
U 1 1 140
P 4150 2250
F 0 "D_SPACE" V 4196 2171 50  0000 R CNN
F 1 "D" V 4095 2171 50  0000 R CNN
F 2 "keyboard_parts:D_SOD123_axial" H 4150 2250 50  0001 C CNN
F 3 "~" H 4150 2250 50  0001 C CNN
	1    4150  2250
	0    -1   -1   0
$EndComp
Wire Wire Line
	4200 2000 4150 2000
Wire Wire Line
	4150 2000 4150 2100
Connection ~ 4800 2000
Connection ~ 4150 2400

$Comp
L keyboard_parts:KEYSW K_Q
U 1 1 151
P 5500 2000
F 0 "K_Q" H 5500 2233 60  0000 C CNN
F 1 "KEYSW" H 5500 1900 60  0001 C CNN
F 2 "MX_Alps_Hybrid:MX-1U-NoLED" H 5500 2000 60  0001 C CNN
F 3 "" H 5500 2000 60  0000 C CNN
	1    5500 2000
	1    0    0    -1
$EndComp
$Comp
L Device:D D_Q
U 1 1 150
P 5150 2250
F 0 "D_Q" V 5196 2171 50  0000 R CNN
F 1 "D" V 5095 2171 50  0000 R CNN
F 2 "keyboard_parts:D_SOD123_axial" H 5150 2250 50  0001 C CNN
F 3 "~" H 5150 2250 50  0001 C CNN
	1    5150  2250
	0    -1   -1   0
$EndComp
Wire Wire Line
	5200 2000 5150 2000
Wire Wire Line
	5150 2000 5150 2100
Connection ~ 5800 2000
Connection ~ 5150 2400

$Comp
L keyboard_parts:KEYSW K_W
U 1 1 161
P 6500 2000
F 0 "K_W" H 6500 2233 60  0000 C CNN
F 1 "KEYSW" H 6500 1900 60  0001 C CNN
F 2 "MX_Alps_Hybrid:MX-1U-NoLED" H 6500 2000 60  0001 C CNN
F 3 "" H 6500 2000 60  0000 C CNN
	1    6500 2000
	1    0    0    -1
$EndComp
$Comp
L Device:D D_W
U 1 1 160
P 6150 2250
F 0 "D_W" V 6196 2171 50  0000 R CNN
F 1 "D" V 6095 2171 50  0000 R CNN
F 2 "keyboard_parts:D_SOD123_axial" H 6150 2250 50  0001 C CNN
F 3 "~" H 6150 2250 50  0001 C CNN
	1    6150  2250
	0    -1   -1   0
$EndComp
Wire Wire Line
	6200 2000 6150 2000
Wire Wire Line
	6150 2000 6150 2100
Connection ~ 6800 2000
Connection ~ 6150 2400

$Comp
L keyboard_parts:KEYSW K_E
U 1 1 171
P 7500 2000
F 0 "K_E" H 7500 2233 60  0000 C CNN
F 1 "KEYSW" H 7500 1900 60  0001 C CNN
F 2 "MX_Alps_Hybrid:MX-1U-NoLED" H 7500 2000 60  0001 C CNN
F 3 "" H 7500 2000 60  0000 C CNN
	1    7500 2000
	1    0    0    -1
$EndComp
$Comp
L Device:D D_E
U 1 1 170
P 7150 2250
F 0 "D_E" V 7196 2171 50  0000 R CNN
F 1 "D" V 7095 2171 50  0000 R CNN
F 2 "keyboard_parts:D_SOD123_axial" H 7150 2250 50  0001 C CNN
F 3 "~" H 7150 2250 50  0001 C CNN
	1    7150  2250
	0    -1   -1   0
$EndComp
Wire Wire Line
	7200 2000 7150 2000
Wire Wire Line
	7150 2000 7150 2100
Connection ~ 7800 2000
Connection ~ 7150 2400

$Comp
L keyboard_parts:KEYSW K_R
U 1 1 181
P 8500 2000
F 0 "K_R" H 8500 2233 60  0000 C CNN
F 1 "KEYSW" H 8500 1900 60  0001 C CNN
F 2 "MX_Alps_Hybrid:MX-1U-NoLED" H 8500 2000 60  0001 C CNN
F 3 "" H 8500 2000 60  0000 C CNN
	1    8500 2000
	1    0    0    -1
$EndComp
$Comp
L Device:D D_R
U 1 1 180
P 8150 2250
F 0 "D_R" V 8196 2171 50  0000 R CNN
F 1 "D" V 8095 2171 50  0000 R CNN
F 2 "keyboard_parts:D_SOD123_axial" H 8150 2250 50  0001 C CNN
F 3 "~" H 8150 2250 50  0001 C CNN
	1    8150  2250
	0    -1   -1   0
$EndComp
Wire Wire Line
	8200 2000 8150 2000
Wire Wire Line
	8150 2000 8150 2100
Connection ~ 8800 2000
Connection ~ 8150 2400

$Comp
L keyboard_parts:KEYSW K_T
U 1 1 191
P 9500 2000
F 0 "K_T" H 9500 2233 60  0000 C CNN
F 1 "KEYSW" H 9500 1900 60  0001 C CNN
F 2 "MX_Alps_Hybrid:MX-1U-NoLED" H 9500 2000 60  0001 C CNN
F 3 "" H 9500 2000 60  0000 C CNN
	1    9500 2000
	1    0    0    -1
$EndComp
$Comp
L Device:D D_T
U 1 1 190
P 9150 2250
F 0 "D_T" V 9196 2171 50  0000 R CNN
F 1 "D" V 9095 2171 50  0000 R CNN
F 2 "keyboard_parts:D_SOD123_axial" H 9150 2250 50  0001 C CNN
F 3 "~" H 9150 2250 50  0001 C CNN
	1    9150  2250
	0    -1   -1   0
$EndComp
Wire Wire Line
	9200 2000 9150 2000
Wire Wire Line
	9150 2000 9150 2100
Connection ~ 9800 2000
Connection ~ 9150 2400

$Comp
L keyboard_parts:KEYSW K_Y
U 1 1 1a1
P 10500 2000
F 0 "K_Y" H 10500 2233 60  0000 C CNN
F 1 "KEYSW" H 10500 1900 60  0001 C CNN
F 2 "MX_Alps_Hybrid:MX-1U-NoLED" H 10500 2000 60  0001 C CNN
F 3 "" H 10500 2000 60  0000 C CNN
	1    10500 2000
	1    0    0    -1
$EndComp
$Comp
L Device:D D_Y
U 1 1 1a0
P 10150 2250
F 0 "D_Y" V 10196 2171 50  0000 R CNN
F 1 "D" V 10095 2171 50  0000 R CNN
F 2 "keyboard_parts:D_SOD123_axial" H 10150 2250 50  0001 C CNN
F 3 "~" H 10150 2250 50  0001 C CNN
	1    10150  2250
	0    -1   -1   0
$EndComp
Wire Wire Line
	10200 2000 10150 2000
Wire Wire Line
	10150 2000 10150 2100
Connection ~ 10800 2000
Connection ~ 10150 2400

$Comp
L keyboard_parts:KEYSW K_U
U 1 1 1b1
P 11500 2000
F 0 "K_U" H 11500 2233 60  0000 C CNN
F 1 "KEYSW" H 11500 1900 60  0001 C CNN
F 2 "MX_Alps_Hybrid:MX-1U-NoLED" H 11500 2000 60  0001 C CNN
F 3 "" H 11500 2000 60  0000 C CNN
	1    11500 2000
	1    0    0    -1
$EndComp
$Comp
L Device:D D_U
U 1 1 1b0
P 11150 2250
F 0 "D_U" V 11196 2171 50  0000 R CNN
F 1 "D" V 11095 2171 50  0000 R CNN
F 2 "keyboard_parts:D_SOD123_axial" H 11150 2250 50  0001 C CNN
F 3 "~" H 11150 2250 50  0001 C CNN
	1    11150  2250
	0    -1   -1   0
$EndComp
Wire Wire Line
	11200 2000 11150 2000
Wire Wire Line
	11150 2000 11150 2100
Connection ~ 11800 2000
Connection ~ 11150 2400

$Comp
L keyboard_parts:KEYSW K_I
U 1 1 1c1
P 12500 2000
F 0 "K_I" H 12500 2233 60  0000 C CNN
F 1 "KEYSW" H 12500 1900 60  0001 C CNN
F 2 "MX_Alps_Hybrid:MX-1U-NoLED" H 12500 2000 60  0001 C CNN
F 3 "" H 12500 2000 60  0000 C CNN
	1    12500 2000
	1    0    0    -1
$EndComp
$Comp
L Device:D D_I
U 1 1 1c0
P 12150 2250
F 0 "D_I" V 12196 2171 50  0000 R CNN
F 1 "D" V 12095 2171 50  0000 R CNN
F 2 "keyboard_parts:D_SOD123_axial" H 12150 2250 50  0001 C CNN
F 3 "~" H 12150 2250 50  0001 C CNN
	1    12150  2250
	0    -1   -1   0
$EndComp
Wire Wire Line
	12200 2000 12150 2000
Wire Wire Line
	12150 2000 12150 2100
Connection ~ 12800 2000
Connection ~ 12150 2400

$Comp
L keyboard_parts:KEYSW K_O
U 1 1 1d1
P 13500 2000
F 0 "K_O" H 13500 2233 60  0000 C CNN
F 1 "KEYSW" H 13500 1900 60  0001 C CNN
F 2 "MX_Alps_Hybrid:MX-1U-NoLED" H 13500 2000 60  0001 C CNN
F 3 "" H 13500 2000 60  0000 C CNN
	1    13500 2000
	1    0    0    -1
$EndComp
$Comp
L Device:D D_O
U 1 1 1d0
P 13150 2250
F 0 "D_O" V 13196 2171 50  0000 R CNN
F 1 "D" V 13095 2171 50  0000 R CNN
F 2 "keyboard_parts:D_SOD123_axial" H 13150 2250 50  0001 C CNN
F 3 "~" H 13150 2250 50  0001 C CNN
	1    13150  2250
	0    -1   -1   0
$EndComp
Wire Wire Line
	13200 2000 13150 2000
Wire Wire Line
	13150 2000 13150 2100
Connection ~ 13800 2000
Connection ~ 13150 2400

$Comp
L keyboard_parts:KEYSW K_P
U 1 1 1e1
P 14500 2000
F 0 "K_P" H 14500 2233 60  0000 C CNN
F 1 "KEYSW" H 14500 1900 60  0001 C CNN
F 2 "MX_Alps_Hybrid:MX-1U-NoLED" H 14500 2000 60  0001 C CNN
F 3 "" H 14500 2000 60  0000 C CNN
	1    14500 2000
	1    0    0    -1
$EndComp
$Comp
L Device:D D_P
U 1 1 1e0
P 14150 2250
F 0 "D_P" V 14196 2171 50  0000 R CNN
F 1 "D" V 14095 2171 50  0000 R CNN
F 2 "keyboard_parts:D_SOD123_axial" H 14150 2250 50  0001 C CNN
F 3 "~" H 14150 2250 50  0001 C CNN
	1    14150  2250
	0    -1   -1   0
$EndComp
Wire Wire Line
	14200 2000 14150 2000
Wire Wire Line
	14150 2000 14150 2100
Connection ~ 14800 2000
Connection ~ 14150 2400

$Comp
L keyboard_parts:KEYSW K_CBRAC
U 1 1 1f1
P 15500 2000
F 0 "K_CBRAC" H 15500 2233 60  0000 C CNN
F 1 "KEYSW" H 15500 1900 60  0001 C CNN
F 2 "MX_Alps_Hybrid:MX-1U-NoLED" H 15500 2000 60  0001 C CNN
F 3 "" H 15500 2000 60  0000 C CNN
	1    15500 2000
	1    0    0    -1
$EndComp
$Comp
L Device:D D_CBRAC
U 1 1 1f0
P 15150 2250
F 0 "D_CBRAC" V 15196 2171 50  0000 R CNN
F 1 "D" V 15095 2171 50  0000 R CNN
F 2 "keyboard_parts:D_SOD123_axial" H 15150 2250 50  0001 C CNN
F 3 "~" H 15150 2250 50  0001 C CNN
	1    15150  2250
	0    -1   -1   0
$EndComp
Wire Wire Line
	15200 2000 15150 2000
Wire Wire Line
	15150 2000 15150 2100
Connection ~ 15800 2000
Connection ~ 15150 2400

$Comp
L keyboard_parts:KEYSW K_OBRAC
U 1 1 201
P 16500 2000
F 0 "K_OBRAC" H 16500 2233 60  0000 C CNN
F 1 "KEYSW" H 16500 1900 60  0001 C CNN
F 2 "MX_Alps_Hybrid:MX-1U-NoLED" H 16500 2000 60  0001 C CNN
F 3 "" H 16500 2000 60  0000 C CNN
	1    16500 2000
	1    0    0    -1
$EndComp
$Comp
L Device:D D_OBRAC
U 1 1 200
P 16150 2250
F 0 "D_OBRAC" V 16196 2171 50  0000 R CNN
F 1 "D" V 16095 2171 50  0000 R CNN
F 2 "keyboard_parts:D_SOD123_axial" H 16150 2250 50  0001 C CNN
F 3 "~" H 16150 2250 50  0001 C CNN
	1    16150  2250
	0    -1   -1   0
$EndComp
Wire Wire Line
	16200 2000 16150 2000
Wire Wire Line
	16150 2000 16150 2100
Connection ~ 16800 2000
Connection ~ 16150 2400

$Comp
L keyboard_parts:KEYSW K_SPACE1
U 1 1 211
P 17500 2000
F 0 "K_SPACE1" H 17500 2233 60  0000 C CNN
F 1 "KEYSW" H 17500 1900 60  0001 C CNN
F 2 "MX_Alps_Hybrid:MX-1.5U-NoLED" H 17500 2000 60  0001 C CNN
F 3 "" H 17500 2000 60  0000 C CNN
	1    17500 2000
	1    0    0    -1
$EndComp
$Comp
L Device:D D_SPACE1
U 1 1 210
P 17150 2250
F 0 "D_SPACE1" V 17196 2171 50  0000 R CNN
F 1 "D" V 17095 2171 50  0000 R CNN
F 2 "keyboard_parts:D_SOD123_axial" H 17150 2250 50  0001 C CNN
F 3 "~" H 17150 2250 50  0001 C CNN
	1    17150  2250
	0    -1   -1   0
$EndComp
Wire Wire Line
	17200 2000 17150 2000
Wire Wire Line
	17150 2000 17150 2100
Connection ~ 17800 2000
Connection ~ 17150 2400

$Comp
L keyboard_parts:KEYSW K_BREAK
U 1 1 111
P 19500 2000
F 0 "K_BREAK" H 19500 2233 60  0000 C CNN
F 1 "KEYSW" H 19500 1900 60  0001 C CNN
F 2 "MX_Alps_Hybrid:MX-1U-NoLED" H 19500 2000 60  0001 C CNN
F 3 "" H 19500 2000 60  0000 C CNN
	1    19500 2000
	1    0    0    -1
$EndComp
$Comp
L Device:D D_BREAK
U 1 1 110
P 19150 2250
F 0 "D_BREAK" V 19196 2171 50  0000 R CNN
F 1 "D" V 19095 2171 50  0000 R CNN
F 2 "keyboard_parts:D_SOD123_axial" H 19150 2250 50  0001 C CNN
F 3 "~" H 19150 2250 50  0001 C CNN
	1    19150  2250
	0    -1   -1   0
$EndComp
Wire Wire Line
	19200 2000 19150 2000
Wire Wire Line
	19150 2000 19150 2100
Connection ~ 19800 2000
Connection ~ 19150 2400

Wire Wire Line
	1150 2400 19150 2400

Text GLabel 900 3400 0    50   Input ~ 0
row2
Wire Wire Line
	900 3400 1150 3400

$Comp
L keyboard_parts:KEYSW K_&lt;I2
U 1 1 231
P 1500 3000
F 0 "K_&lt;I2" H 1500 3233 60  0000 C CNN
F 1 "KEYSW" H 1500 2900 60  0001 C CNN
F 2 "MX_Alps_Hybrid:MX-1U-NoLED" H 1500 3000 60  0001 C CNN
F 3 "" H 1500 3000 60  0000 C CNN
	1    1500 3000
	1    0    0    -1
$EndComp
$Comp
L Device:D D_&lt;I2
U 1 1 230
P 1150 3250
F 0 "D_&lt;I2" V 1196 3171 50  0000 R CNN
F 1 "D" V 1095 3171 50  0000 R CNN
F 2 "keyboard_parts:D_SOD123_axial" H 1150 3250 50  0001 C CNN
F 3 "~" H 1150 3250 50  0001 C CNN
	1    1150  3250
	0    -1   -1   0
$EndComp
Wire Wire Line
	1200 3000 1150 3000
Wire Wire Line
	1150 3000 1150 3100
Connection ~ 1800 3000
Connection ~ 1150 3400

$Comp
L keyboard_parts:KEYSW K_&lt;I3
U 1 1 241
P 2500 3000
F 0 "K_&lt;I3" H 2500 3233 60  0000 C CNN
F 1 "KEYSW" H 2500 2900 60  0001 C CNN
F 2 "MX_Alps_Hybrid:MX-1U-NoLED" H 2500 3000 60  0001 C CNN
F 3 "" H 2500 3000 60  0000 C CNN
	1    2500 3000
	1    0    0    -1
$EndComp
$Comp
L Device:D D_&lt;I3
U 1 1 240
P 2150 3250
F 0 "D_&lt;I3" V 2196 3171 50  0000 R CNN
F 1 "D" V 2095 3171 50  0000 R CNN
F 2 "keyboard_parts:D_SOD123_axial" H 2150 3250 50  0001 C CNN
F 3 "~" H 2150 3250 50  0001 C CNN
	1    2150  3250
	0    -1   -1   0
$EndComp
Wire Wire Line
	2200 3000 2150 3000
Wire Wire Line
	2150 3000 2150 3100
Connection ~ 2800 3000
Connection ~ 2150 3400

$Comp
L keyboard_parts:KEYSW K_CTRL
U 1 1 251
P 4500 3000
F 0 "K_CTRL" H 4500 3233 60  0000 C CNN
F 1 "KEYSW" H 4500 2900 60  0001 C CNN
F 2 "MX_Alps_Hybrid:MX-1.75U-NoLED" H 4500 3000 60  0001 C CNN
F 3 "" H 4500 3000 60  0000 C CNN
	1    4500 3000
	1    0    0    -1
$EndComp
$Comp
L Device:D D_CTRL
U 1 1 250
P 4150 3250
F 0 "D_CTRL" V 4196 3171 50  0000 R CNN
F 1 "D" V 4095 3171 50  0000 R CNN
F 2 "keyboard_parts:D_SOD123_axial" H 4150 3250 50  0001 C CNN
F 3 "~" H 4150 3250 50  0001 C CNN
	1    4150  3250
	0    -1   -1   0
$EndComp
Wire Wire Line
	4200 3000 4150 3000
Wire Wire Line
	4150 3000 4150 3100
Connection ~ 4800 3000
Connection ~ 4150 3400

$Comp
L keyboard_parts:KEYSW K_A
U 1 1 261
P 5500 3000
F 0 "K_A" H 5500 3233 60  0000 C CNN
F 1 "KEYSW" H 5500 2900 60  0001 C CNN
F 2 "MX_Alps_Hybrid:MX-1U-NoLED" H 5500 3000 60  0001 C CNN
F 3 "" H 5500 3000 60  0000 C CNN
	1    5500 3000
	1    0    0    -1
$EndComp
$Comp
L Device:D D_A
U 1 1 260
P 5150 3250
F 0 "D_A" V 5196 3171 50  0000 R CNN
F 1 "D" V 5095 3171 50  0000 R CNN
F 2 "keyboard_parts:D_SOD123_axial" H 5150 3250 50  0001 C CNN
F 3 "~" H 5150 3250 50  0001 C CNN
	1    5150  3250
	0    -1   -1   0
$EndComp
Wire Wire Line
	5200 3000 5150 3000
Wire Wire Line
	5150 3000 5150 3100
Connection ~ 5800 3000
Connection ~ 5150 3400

$Comp
L keyboard_parts:KEYSW K_S
U 1 1 271
P 6500 3000
F 0 "K_S" H 6500 3233 60  0000 C CNN
F 1 "KEYSW" H 6500 2900 60  0001 C CNN
F 2 "MX_Alps_Hybrid:MX-1U-NoLED" H 6500 3000 60  0001 C CNN
F 3 "" H 6500 3000 60  0000 C CNN
	1    6500 3000
	1    0    0    -1
$EndComp
$Comp
L Device:D D_S
U 1 1 270
P 6150 3250
F 0 "D_S" V 6196 3171 50  0000 R CNN
F 1 "D" V 6095 3171 50  0000 R CNN
F 2 "keyboard_parts:D_SOD123_axial" H 6150 3250 50  0001 C CNN
F 3 "~" H 6150 3250 50  0001 C CNN
	1    6150  3250
	0    -1   -1   0
$EndComp
Wire Wire Line
	6200 3000 6150 3000
Wire Wire Line
	6150 3000 6150 3100
Connection ~ 6800 3000
Connection ~ 6150 3400

$Comp
L keyboard_parts:KEYSW K_D
U 1 1 281
P 7500 3000
F 0 "K_D" H 7500 3233 60  0000 C CNN
F 1 "KEYSW" H 7500 2900 60  0001 C CNN
F 2 "MX_Alps_Hybrid:MX-1U-NoLED" H 7500 3000 60  0001 C CNN
F 3 "" H 7500 3000 60  0000 C CNN
	1    7500 3000
	1    0    0    -1
$EndComp
$Comp
L Device:D D_D
U 1 1 280
P 7150 3250
F 0 "D_D" V 7196 3171 50  0000 R CNN
F 1 "D" V 7095 3171 50  0000 R CNN
F 2 "keyboard_parts:D_SOD123_axial" H 7150 3250 50  0001 C CNN
F 3 "~" H 7150 3250 50  0001 C CNN
	1    7150  3250
	0    -1   -1   0
$EndComp
Wire Wire Line
	7200 3000 7150 3000
Wire Wire Line
	7150 3000 7150 3100
Connection ~ 7800 3000
Connection ~ 7150 3400

$Comp
L keyboard_parts:KEYSW K_F
U 1 1 291
P 8500 3000
F 0 "K_F" H 8500 3233 60  0000 C CNN
F 1 "KEYSW" H 8500 2900 60  0001 C CNN
F 2 "MX_Alps_Hybrid:MX-1U-NoLED" H 8500 3000 60  0001 C CNN
F 3 "" H 8500 3000 60  0000 C CNN
	1    8500 3000
	1    0    0    -1
$EndComp
$Comp
L Device:D D_F
U 1 1 290
P 8150 3250
F 0 "D_F" V 8196 3171 50  0000 R CNN
F 1 "D" V 8095 3171 50  0000 R CNN
F 2 "keyboard_parts:D_SOD123_axial" H 8150 3250 50  0001 C CNN
F 3 "~" H 8150 3250 50  0001 C CNN
	1    8150  3250
	0    -1   -1   0
$EndComp
Wire Wire Line
	8200 3000 8150 3000
Wire Wire Line
	8150 3000 8150 3100
Connection ~ 8800 3000
Connection ~ 8150 3400

$Comp
L keyboard_parts:KEYSW K_G
U 1 1 2a1
P 9500 3000
F 0 "K_G" H 9500 3233 60  0000 C CNN
F 1 "KEYSW" H 9500 2900 60  0001 C CNN
F 2 "MX_Alps_Hybrid:MX-1U-NoLED" H 9500 3000 60  0001 C CNN
F 3 "" H 9500 3000 60  0000 C CNN
	1    9500 3000
	1    0    0    -1
$EndComp
$Comp
L Device:D D_G
U 1 1 2a0
P 9150 3250
F 0 "D_G" V 9196 3171 50  0000 R CNN
F 1 "D" V 9095 3171 50  0000 R CNN
F 2 "keyboard_parts:D_SOD123_axial" H 9150 3250 50  0001 C CNN
F 3 "~" H 9150 3250 50  0001 C CNN
	1    9150  3250
	0    -1   -1   0
$EndComp
Wire Wire Line
	9200 3000 9150 3000
Wire Wire Line
	9150 3000 9150 3100
Connection ~ 9800 3000
Connection ~ 9150 3400

$Comp
L keyboard_parts:KEYSW K_H
U 1 1 2b1
P 10500 3000
F 0 "K_H" H 10500 3233 60  0000 C CNN
F 1 "KEYSW" H 10500 2900 60  0001 C CNN
F 2 "MX_Alps_Hybrid:MX-1U-NoLED" H 10500 3000 60  0001 C CNN
F 3 "" H 10500 3000 60  0000 C CNN
	1    10500 3000
	1    0    0    -1
$EndComp
$Comp
L Device:D D_H
U 1 1 2b0
P 10150 3250
F 0 "D_H" V 10196 3171 50  0000 R CNN
F 1 "D" V 10095 3171 50  0000 R CNN
F 2 "keyboard_parts:D_SOD123_axial" H 10150 3250 50  0001 C CNN
F 3 "~" H 10150 3250 50  0001 C CNN
	1    10150  3250
	0    -1   -1   0
$EndComp
Wire Wire Line
	10200 3000 10150 3000
Wire Wire Line
	10150 3000 10150 3100
Connection ~ 10800 3000
Connection ~ 10150 3400

$Comp
L keyboard_parts:KEYSW K_J
U 1 1 2c1
P 11500 3000
F 0 "K_J" H 11500 3233 60  0000 C CNN
F 1 "KEYSW" H 11500 2900 60  0001 C CNN
F 2 "MX_Alps_Hybrid:MX-1U-NoLED" H 11500 3000 60  0001 C CNN
F 3 "" H 11500 3000 60  0000 C CNN
	1    11500 3000
	1    0    0    -1
$EndComp
$Comp
L Device:D D_J
U 1 1 2c0
P 11150 3250
F 0 "D_J" V 11196 3171 50  0000 R CNN
F 1 "D" V 11095 3171 50  0000 R CNN
F 2 "keyboard_parts:D_SOD123_axial" H 11150 3250 50  0001 C CNN
F 3 "~" H 11150 3250 50  0001 C CNN
	1    11150  3250
	0    -1   -1   0
$EndComp
Wire Wire Line
	11200 3000 11150 3000
Wire Wire Line
	11150 3000 11150 3100
Connection ~ 11800 3000
Connection ~ 11150 3400

$Comp
L keyboard_parts:KEYSW K_K
U 1 1 2d1
P 12500 3000
F 0 "K_K" H 12500 3233 60  0000 C CNN
F 1 "KEYSW" H 12500 2900 60  0001 C CNN
F 2 "MX_Alps_Hybrid:MX-1U-NoLED" H 12500 3000 60  0001 C CNN
F 3 "" H 12500 3000 60  0000 C CNN
	1    12500 3000
	1    0    0    -1
$EndComp
$Comp
L Device:D D_K
U 1 1 2d0
P 12150 3250
F 0 "D_K" V 12196 3171 50  0000 R CNN
F 1 "D" V 12095 3171 50  0000 R CNN
F 2 "keyboard_parts:D_SOD123_axial" H 12150 3250 50  0001 C CNN
F 3 "~" H 12150 3250 50  0001 C CNN
	1    12150  3250
	0    -1   -1   0
$EndComp
Wire Wire Line
	12200 3000 12150 3000
Wire Wire Line
	12150 3000 12150 3100
Connection ~ 12800 3000
Connection ~ 12150 3400

$Comp
L keyboard_parts:KEYSW K_L
U 1 1 2e1
P 13500 3000
F 0 "K_L" H 13500 3233 60  0000 C CNN
F 1 "KEYSW" H 13500 2900 60  0001 C CNN
F 2 "MX_Alps_Hybrid:MX-1U-NoLED" H 13500 3000 60  0001 C CNN
F 3 "" H 13500 3000 60  0000 C CNN
	1    13500 3000
	1    0    0    -1
$EndComp
$Comp
L Device:D D_L
U 1 1 2e0
P 13150 3250
F 0 "D_L" V 13196 3171 50  0000 R CNN
F 1 "D" V 13095 3171 50  0000 R CNN
F 2 "keyboard_parts:D_SOD123_axial" H 13150 3250 50  0001 C CNN
F 3 "~" H 13150 3250 50  0001 C CNN
	1    13150  3250
	0    -1   -1   0
$EndComp
Wire Wire Line
	13200 3000 13150 3000
Wire Wire Line
	13150 3000 13150 3100
Connection ~ 13800 3000
Connection ~ 13150 3400

$Comp
L keyboard_parts:KEYSW K_SEMIC
U 1 1 2f1
P 14500 3000
F 0 "K_SEMIC" H 14500 3233 60  0000 C CNN
F 1 "KEYSW" H 14500 2900 60  0001 C CNN
F 2 "MX_Alps_Hybrid:MX-1U-NoLED" H 14500 3000 60  0001 C CNN
F 3 "" H 14500 3000 60  0000 C CNN
	1    14500 3000
	1    0    0    -1
$EndComp
$Comp
L Device:D D_SEMIC
U 1 1 2f0
P 14150 3250
F 0 "D_SEMIC" V 14196 3171 50  0000 R CNN
F 1 "D" V 14095 3171 50  0000 R CNN
F 2 "keyboard_parts:D_SOD123_axial" H 14150 3250 50  0001 C CNN
F 3 "~" H 14150 3250 50  0001 C CNN
	1    14150  3250
	0    -1   -1   0
$EndComp
Wire Wire Line
	14200 3000 14150 3000
Wire Wire Line
	14150 3000 14150 3100
Connection ~ 14800 3000
Connection ~ 14150 3400

$Comp
L keyboard_parts:KEYSW K_QUOTE
U 1 1 301
P 15500 3000
F 0 "K_QUOTE" H 15500 3233 60  0000 C CNN
F 1 "KEYSW" H 15500 2900 60  0001 C CNN
F 2 "MX_Alps_Hybrid:MX-1U-NoLED" H 15500 3000 60  0001 C CNN
F 3 "" H 15500 3000 60  0000 C CNN
	1    15500 3000
	1    0    0    -1
$EndComp
$Comp
L Device:D D_QUOTE
U 1 1 300
P 15150 3250
F 0 "D_QUOTE" V 15196 3171 50  0000 R CNN
F 1 "D" V 15095 3171 50  0000 R CNN
F 2 "keyboard_parts:D_SOD123_axial" H 15150 3250 50  0001 C CNN
F 3 "~" H 15150 3250 50  0001 C CNN
	1    15150  3250
	0    -1   -1   0
$EndComp
Wire Wire Line
	15200 3000 15150 3000
Wire Wire Line
	15150 3000 15150 3100
Connection ~ 15800 3000
Connection ~ 15150 3400

$Comp
L keyboard_parts:KEYSW K_ENTER
U 1 1 311
P 17500 3000
F 0 "K_ENTER" H 17500 3233 60  0000 C CNN
F 1 "KEYSW" H 17500 2900 60  0001 C CNN
F 2 "MX_Alps_Hybrid:MX-2.25U-NoLED" H 17500 3000 60  0001 C CNN
F 3 "" H 17500 3000 60  0000 C CNN
	1    17500 3000
	1    0    0    -1
$EndComp
$Comp
L Device:D D_ENTER
U 1 1 310
P 17150 3250
F 0 "D_ENTER" V 17196 3171 50  0000 R CNN
F 1 "D" V 17095 3171 50  0000 R CNN
F 2 "keyboard_parts:D_SOD123_axial" H 17150 3250 50  0001 C CNN
F 3 "~" H 17150 3250 50  0001 C CNN
	1    17150  3250
	0    -1   -1   0
$EndComp
Wire Wire Line
	17200 3000 17150 3000
Wire Wire Line
	17150 3000 17150 3100
Connection ~ 17800 3000
Connection ~ 17150 3400

$Comp
L keyboard_parts:KEYSW K_DEL
U 1 1 221
P 19500 3000
F 0 "K_DEL" H 19500 3233 60  0000 C CNN
F 1 "KEYSW" H 19500 2900 60  0001 C CNN
F 2 "MX_Alps_Hybrid:MX-1U-NoLED" H 19500 3000 60  0001 C CNN
F 3 "" H 19500 3000 60  0000 C CNN
	1    19500 3000
	1    0    0    -1
$EndComp
$Comp
L Device:D D_DEL
U 1 1 220
P 19150 3250
F 0 "D_DEL" V 19196 3171 50  0000 R CNN
F 1 "D" V 19095 3171 50  0000 R CNN
F 2 "keyboard_parts:D_SOD123_axial" H 19150 3250 50  0001 C CNN
F 3 "~" H 19150 3250 50  0001 C CNN
	1    19150  3250
	0    -1   -1   0
$EndComp
Wire Wire Line
	19200 3000 19150 3000
Wire Wire Line
	19150 3000 19150 3100
Connection ~ 19800 3000
Connection ~ 19150 3400

Wire Wire Line
	1150 3400 19150 3400

Text GLabel 900 4400 0    50   Input ~ 0
row3
Wire Wire Line
	900 4400 1150 4400

$Comp
L keyboard_parts:KEYSW K_&lt;I4
U 1 1 331
P 1500 4000
F 0 "K_&lt;I4" H 1500 4233 60  0000 C CNN
F 1 "KEYSW" H 1500 3900 60  0001 C CNN
F 2 "MX_Alps_Hybrid:MX-1U-NoLED" H 1500 4000 60  0001 C CNN
F 3 "" H 1500 4000 60  0000 C CNN
	1    1500 4000
	1    0    0    -1
$EndComp
$Comp
L Device:D D_&lt;I4
U 1 1 330
P 1150 4250
F 0 "D_&lt;I4" V 1196 4171 50  0000 R CNN
F 1 "D" V 1095 4171 50  0000 R CNN
F 2 "keyboard_parts:D_SOD123_axial" H 1150 4250 50  0001 C CNN
F 3 "~" H 1150 4250 50  0001 C CNN
	1    1150  4250
	0    -1   -1   0
$EndComp
Wire Wire Line
	1200 4000 1150 4000
Wire Wire Line
	1150 4000 1150 4100
Connection ~ 1800 4000
Connection ~ 1150 4400

$Comp
L keyboard_parts:KEYSW K_&lt;I5
U 1 1 341
P 2500 4000
F 0 "K_&lt;I5" H 2500 4233 60  0000 C CNN
F 1 "KEYSW" H 2500 3900 60  0001 C CNN
F 2 "MX_Alps_Hybrid:MX-1U-NoLED" H 2500 4000 60  0001 C CNN
F 3 "" H 2500 4000 60  0000 C CNN
	1    2500 4000
	1    0    0    -1
$EndComp
$Comp
L Device:D D_&lt;I5
U 1 1 340
P 2150 4250
F 0 "D_&lt;I5" V 2196 4171 50  0000 R CNN
F 1 "D" V 2095 4171 50  0000 R CNN
F 2 "keyboard_parts:D_SOD123_axial" H 2150 4250 50  0001 C CNN
F 3 "~" H 2150 4250 50  0001 C CNN
	1    2150  4250
	0    -1   -1   0
$EndComp
Wire Wire Line
	2200 4000 2150 4000
Wire Wire Line
	2150 4000 2150 4100
Connection ~ 2800 4000
Connection ~ 2150 4400

$Comp
L keyboard_parts:KEYSW K_SHIFT
U 1 1 351
P 4500 4000
F 0 "K_SHIFT" H 4500 4233 60  0000 C CNN
F 1 "KEYSW" H 4500 3900 60  0001 C CNN
F 2 "MX_Alps_Hybrid:MX-2.25U-NoLED" H 4500 4000 60  0001 C CNN
F 3 "" H 4500 4000 60  0000 C CNN
	1    4500 4000
	1    0    0    -1
$EndComp
$Comp
L Device:D D_SHIFT
U 1 1 350
P 4150 4250
F 0 "D_SHIFT" V 4196 4171 50  0000 R CNN
F 1 "D" V 4095 4171 50  0000 R CNN
F 2 "keyboard_parts:D_SOD123_axial" H 4150 4250 50  0001 C CNN
F 3 "~" H 4150 4250 50  0001 C CNN
	1    4150  4250
	0    -1   -1   0
$EndComp
Wire Wire Line
	4200 4000 4150 4000
Wire Wire Line
	4150 4000 4150 4100
Connection ~ 4800 4000
Connection ~ 4150 4400

$Comp
L keyboard_parts:KEYSW K_Z
U 1 1 361
P 6500 4000
F 0 "K_Z" H 6500 4233 60  0000 C CNN
F 1 "KEYSW" H 6500 3900 60  0001 C CNN
F 2 "MX_Alps_Hybrid:MX-1U-NoLED" H 6500 4000 60  0001 C CNN
F 3 "" H 6500 4000 60  0000 C CNN
	1    6500 4000
	1    0    0    -1
$EndComp
$Comp
L Device:D D_Z
U 1 1 360
P 6150 4250
F 0 "D_Z" V 6196 4171 50  0000 R CNN
F 1 "D" V 6095 4171 50  0000 R CNN
F 2 "keyboard_parts:D_SOD123_axial" H 6150 4250 50  0001 C CNN
F 3 "~" H 6150 4250 50  0001 C CNN
	1    6150  4250
	0    -1   -1   0
$EndComp
Wire Wire Line
	6200 4000 6150 4000
Wire Wire Line
	6150 4000 6150 4100
Connection ~ 6800 4000
Connection ~ 6150 4400

$Comp
L keyboard_parts:KEYSW K_X
U 1 1 371
P 7500 4000
F 0 "K_X" H 7500 4233 60  0000 C CNN
F 1 "KEYSW" H 7500 3900 60  0001 C CNN
F 2 "MX_Alps_Hybrid:MX-1U-NoLED" H 7500 4000 60  0001 C CNN
F 3 "" H 7500 4000 60  0000 C CNN
	1    7500 4000
	1    0    0    -1
$EndComp
$Comp
L Device:D D_X
U 1 1 370
P 7150 4250
F 0 "D_X" V 7196 4171 50  0000 R CNN
F 1 "D" V 7095 4171 50  0000 R CNN
F 2 "keyboard_parts:D_SOD123_axial" H 7150 4250 50  0001 C CNN
F 3 "~" H 7150 4250 50  0001 C CNN
	1    7150  4250
	0    -1   -1   0
$EndComp
Wire Wire Line
	7200 4000 7150 4000
Wire Wire Line
	7150 4000 7150 4100
Connection ~ 7800 4000
Connection ~ 7150 4400

$Comp
L keyboard_parts:KEYSW K_C
U 1 1 381
P 8500 4000
F 0 "K_C" H 8500 4233 60  0000 C CNN
F 1 "KEYSW" H 8500 3900 60  0001 C CNN
F 2 "MX_Alps_Hybrid:MX-1U-NoLED" H 8500 4000 60  0001 C CNN
F 3 "" H 8500 4000 60  0000 C CNN
	1    8500 4000
	1    0    0    -1
$EndComp
$Comp
L Device:D D_C
U 1 1 380
P 8150 4250
F 0 "D_C" V 8196 4171 50  0000 R CNN
F 1 "D" V 8095 4171 50  0000 R CNN
F 2 "keyboard_parts:D_SOD123_axial" H 8150 4250 50  0001 C CNN
F 3 "~" H 8150 4250 50  0001 C CNN
	1    8150  4250
	0    -1   -1   0
$EndComp
Wire Wire Line
	8200 4000 8150 4000
Wire Wire Line
	8150 4000 8150 4100
Connection ~ 8800 4000
Connection ~ 8150 4400

$Comp
L keyboard_parts:KEYSW K_V
U 1 1 391
P 9500 4000
F 0 "K_V" H 9500 4233 60  0000 C CNN
F 1 "KEYSW" H 9500 3900 60  0001 C CNN
F 2 "MX_Alps_Hybrid:MX-1U-NoLED" H 9500 4000 60  0001 C CNN
F 3 "" H 9500 4000 60  0000 C CNN
	1    9500 4000
	1    0    0    -1
$EndComp
$Comp
L Device:D D_V
U 1 1 390
P 9150 4250
F 0 "D_V" V 9196 4171 50  0000 R CNN
F 1 "D" V 9095 4171 50  0000 R CNN
F 2 "keyboard_parts:D_SOD123_axial" H 9150 4250 50  0001 C CNN
F 3 "~" H 9150 4250 50  0001 C CNN
	1    9150  4250
	0    -1   -1   0
$EndComp
Wire Wire Line
	9200 4000 9150 4000
Wire Wire Line
	9150 4000 9150 4100
Connection ~ 9800 4000
Connection ~ 9150 4400

$Comp
L keyboard_parts:KEYSW K_B
U 1 1 3a1
P 10500 4000
F 0 "K_B" H 10500 4233 60  0000 C CNN
F 1 "KEYSW" H 10500 3900 60  0001 C CNN
F 2 "MX_Alps_Hybrid:MX-1U-NoLED" H 10500 4000 60  0001 C CNN
F 3 "" H 10500 4000 60  0000 C CNN
	1    10500 4000
	1    0    0    -1
$EndComp
$Comp
L Device:D D_B
U 1 1 3a0
P 10150 4250
F 0 "D_B" V 10196 4171 50  0000 R CNN
F 1 "D" V 10095 4171 50  0000 R CNN
F 2 "keyboard_parts:D_SOD123_axial" H 10150 4250 50  0001 C CNN
F 3 "~" H 10150 4250 50  0001 C CNN
	1    10150  4250
	0    -1   -1   0
$EndComp
Wire Wire Line
	10200 4000 10150 4000
Wire Wire Line
	10150 4000 10150 4100
Connection ~ 10800 4000
Connection ~ 10150 4400

$Comp
L keyboard_parts:KEYSW K_N
U 1 1 3b1
P 11500 4000
F 0 "K_N" H 11500 4233 60  0000 C CNN
F 1 "KEYSW" H 11500 3900 60  0001 C CNN
F 2 "MX_Alps_Hybrid:MX-1U-NoLED" H 11500 4000 60  0001 C CNN
F 3 "" H 11500 4000 60  0000 C CNN
	1    11500 4000
	1    0    0    -1
$EndComp
$Comp
L Device:D D_N
U 1 1 3b0
P 11150 4250
F 0 "D_N" V 11196 4171 50  0000 R CNN
F 1 "D" V 11095 4171 50  0000 R CNN
F 2 "keyboard_parts:D_SOD123_axial" H 11150 4250 50  0001 C CNN
F 3 "~" H 11150 4250 50  0001 C CNN
	1    11150  4250
	0    -1   -1   0
$EndComp
Wire Wire Line
	11200 4000 11150 4000
Wire Wire Line
	11150 4000 11150 4100
Connection ~ 11800 4000
Connection ~ 11150 4400

$Comp
L keyboard_parts:KEYSW K_M
U 1 1 3c1
P 12500 4000
F 0 "K_M" H 12500 4233 60  0000 C CNN
F 1 "KEYSW" H 12500 3900 60  0001 C CNN
F 2 "MX_Alps_Hybrid:MX-1U-NoLED" H 12500 4000 60  0001 C CNN
F 3 "" H 12500 4000 60  0000 C CNN
	1    12500 4000
	1    0    0    -1
$EndComp
$Comp
L Device:D D_M
U 1 1 3c0
P 12150 4250
F 0 "D_M" V 12196 4171 50  0000 R CNN
F 1 "D" V 12095 4171 50  0000 R CNN
F 2 "keyboard_parts:D_SOD123_axial" H 12150 4250 50  0001 C CNN
F 3 "~" H 12150 4250 50  0001 C CNN
	1    12150  4250
	0    -1   -1   0
$EndComp
Wire Wire Line
	12200 4000 12150 4000
Wire Wire Line
	12150 4000 12150 4100
Connection ~ 12800 4000
Connection ~ 12150 4400

$Comp
L keyboard_parts:KEYSW K_COMMA
U 1 1 3d1
P 13500 4000
F 0 "K_COMMA" H 13500 4233 60  0000 C CNN
F 1 "KEYSW" H 13500 3900 60  0001 C CNN
F 2 "MX_Alps_Hybrid:MX-1U-NoLED" H 13500 4000 60  0001 C CNN
F 3 "" H 13500 4000 60  0000 C CNN
	1    13500 4000
	1    0    0    -1
$EndComp
$Comp
L Device:D D_COMMA
U 1 1 3d0
P 13150 4250
F 0 "D_COMMA" V 13196 4171 50  0000 R CNN
F 1 "D" V 13095 4171 50  0000 R CNN
F 2 "keyboard_parts:D_SOD123_axial" H 13150 4250 50  0001 C CNN
F 3 "~" H 13150 4250 50  0001 C CNN
	1    13150  4250
	0    -1   -1   0
$EndComp
Wire Wire Line
	13200 4000 13150 4000
Wire Wire Line
	13150 4000 13150 4100
Connection ~ 13800 4000
Connection ~ 13150 4400

$Comp
L keyboard_parts:KEYSW K_DOT
U 1 1 3e1
P 14500 4000
F 0 "K_DOT" H 14500 4233 60  0000 C CNN
F 1 "KEYSW" H 14500 3900 60  0001 C CNN
F 2 "MX_Alps_Hybrid:MX-1U-NoLED" H 14500 4000 60  0001 C CNN
F 3 "" H 14500 4000 60  0000 C CNN
	1    14500 4000
	1    0    0    -1
$EndComp
$Comp
L Device:D D_DOT
U 1 1 3e0
P 14150 4250
F 0 "D_DOT" V 14196 4171 50  0000 R CNN
F 1 "D" V 14095 4171 50  0000 R CNN
F 2 "keyboard_parts:D_SOD123_axial" H 14150 4250 50  0001 C CNN
F 3 "~" H 14150 4250 50  0001 C CNN
	1    14150  4250
	0    -1   -1   0
$EndComp
Wire Wire Line
	14200 4000 14150 4000
Wire Wire Line
	14150 4000 14150 4100
Connection ~ 14800 4000
Connection ~ 14150 4400

$Comp
L keyboard_parts:KEYSW K_SLASH
U 1 1 3f1
P 15500 4000
F 0 "K_SLASH" H 15500 4233 60  0000 C CNN
F 1 "KEYSW" H 15500 3900 60  0001 C CNN
F 2 "MX_Alps_Hybrid:MX-1U-NoLED" H 15500 4000 60  0001 C CNN
F 3 "" H 15500 4000 60  0000 C CNN
	1    15500 4000
	1    0    0    -1
$EndComp
$Comp
L Device:D D_SLASH
U 1 1 3f0
P 15150 4250
F 0 "D_SLASH" V 15196 4171 50  0000 R CNN
F 1 "D" V 15095 4171 50  0000 R CNN
F 2 "keyboard_parts:D_SOD123_axial" H 15150 4250 50  0001 C CNN
F 3 "~" H 15150 4250 50  0001 C CNN
	1    15150  4250
	0    -1   -1   0
$EndComp
Wire Wire Line
	15200 4000 15150 4000
Wire Wire Line
	15150 4000 15150 4100
Connection ~ 15800 4000
Connection ~ 15150 4400

$Comp
L keyboard_parts:KEYSW K_SHIFT1
U 1 1 401
P 16500 4000
F 0 "K_SHIFT1" H 16500 4233 60  0000 C CNN
F 1 "KEYSW" H 16500 3900 60  0001 C CNN
F 2 "MX_Alps_Hybrid:MX-1.75U-NoLED" H 16500 4000 60  0001 C CNN
F 3 "" H 16500 4000 60  0000 C CNN
	1    16500 4000
	1    0    0    -1
$EndComp
$Comp
L Device:D D_SHIFT1
U 1 1 400
P 16150 4250
F 0 "D_SHIFT1" V 16196 4171 50  0000 R CNN
F 1 "D" V 16095 4171 50  0000 R CNN
F 2 "keyboard_parts:D_SOD123_axial" H 16150 4250 50  0001 C CNN
F 3 "~" H 16150 4250 50  0001 C CNN
	1    16150  4250
	0    -1   -1   0
$EndComp
Wire Wire Line
	16200 4000 16150 4000
Wire Wire Line
	16150 4000 16150 4100
Connection ~ 16800 4000
Connection ~ 16150 4400

$Comp
L keyboard_parts:KEYSW K_PGUP
U 1 1 411
P 17500 4000
F 0 "K_PGUP" H 17500 4233 60  0000 C CNN
F 1 "KEYSW" H 17500 3900 60  0001 C CNN
F 2 "MX_Alps_Hybrid:MX-1U-NoLED" H 17500 4000 60  0001 C CNN
F 3 "" H 17500 4000 60  0000 C CNN
	1    17500 4000
	1    0    0    -1
$EndComp
$Comp
L Device:D D_PGUP
U 1 1 410
P 17150 4250
F 0 "D_PGUP" V 17196 4171 50  0000 R CNN
F 1 "D" V 17095 4171 50  0000 R CNN
F 2 "keyboard_parts:D_SOD123_axial" H 17150 4250 50  0001 C CNN
F 3 "~" H 17150 4250 50  0001 C CNN
	1    17150  4250
	0    -1   -1   0
$EndComp
Wire Wire Line
	17200 4000 17150 4000
Wire Wire Line
	17150 4000 17150 4100
Connection ~ 17800 4000
Connection ~ 17150 4400

$Comp
L keyboard_parts:KEYSW K_INSERT
U 1 1 321
P 19500 4000
F 0 "K_INSERT" H 19500 4233 60  0000 C CNN
F 1 "KEYSW" H 19500 3900 60  0001 C CNN
F 2 "MX_Alps_Hybrid:MX-1U-NoLED" H 19500 4000 60  0001 C CNN
F 3 "" H 19500 4000 60  0000 C CNN
	1    19500 4000
	1    0    0    -1
$EndComp
$Comp
L Device:D D_INSERT
U 1 1 320
P 19150 4250
F 0 "D_INSERT" V 19196 4171 50  0000 R CNN
F 1 "D" V 19095 4171 50  0000 R CNN
F 2 "keyboard_parts:D_SOD123_axial" H 19150 4250 50  0001 C CNN
F 3 "~" H 19150 4250 50  0001 C CNN
	1    19150  4250
	0    -1   -1   0
$EndComp
Wire Wire Line
	19200 4000 19150 4000
Wire Wire Line
	19150 4000 19150 4100
Connection ~ 19800 4000
Connection ~ 19150 4400

Wire Wire Line
	1150 4400 19150 4400

Text GLabel 900 5400 0    50   Input ~ 0
row4
Wire Wire Line
	900 5400 1150 5400

$Comp
L keyboard_parts:KEYSW K_&lt;I6
U 1 1 421
P 1500 5000
F 0 "K_&lt;I6" H 1500 5233 60  0000 C CNN
F 1 "KEYSW" H 1500 4900 60  0001 C CNN
F 2 "MX_Alps_Hybrid:MX-1U-NoLED" H 1500 5000 60  0001 C CNN
F 3 "" H 1500 5000 60  0000 C CNN
	1    1500 5000
	1    0    0    -1
$EndComp
$Comp
L Device:D D_&lt;I6
U 1 1 420
P 1150 5250
F 0 "D_&lt;I6" V 1196 5171 50  0000 R CNN
F 1 "D" V 1095 5171 50  0000 R CNN
F 2 "keyboard_parts:D_SOD123_axial" H 1150 5250 50  0001 C CNN
F 3 "~" H 1150 5250 50  0001 C CNN
	1    1150  5250
	0    -1   -1   0
$EndComp
Wire Wire Line
	1200 5000 1150 5000
Wire Wire Line
	1150 5000 1150 5100
Connection ~ 1800 5000
Connection ~ 1150 5400

$Comp
L keyboard_parts:KEYSW K_&lt;I7
U 1 1 431
P 2500 5000
F 0 "K_&lt;I7" H 2500 5233 60  0000 C CNN
F 1 "KEYSW" H 2500 4900 60  0001 C CNN
F 2 "MX_Alps_Hybrid:MX-1U-NoLED" H 2500 5000 60  0001 C CNN
F 3 "" H 2500 5000 60  0000 C CNN
	1    2500 5000
	1    0    0    -1
$EndComp
$Comp
L Device:D D_&lt;I7
U 1 1 430
P 2150 5250
F 0 "D_&lt;I7" V 2196 5171 50  0000 R CNN
F 1 "D" V 2095 5171 50  0000 R CNN
F 2 "keyboard_parts:D_SOD123_axial" H 2150 5250 50  0001 C CNN
F 3 "~" H 2150 5250 50  0001 C CNN
	1    2150  5250
	0    -1   -1   0
$EndComp
Wire Wire Line
	2200 5000 2150 5000
Wire Wire Line
	2150 5000 2150 5100
Connection ~ 2800 5000
Connection ~ 2150 5400

$Comp
L keyboard_parts:KEYSW K_CAPS
U 1 1 441
P 4500 5000
F 0 "K_CAPS" H 4500 5233 60  0000 C CNN
F 1 "KEYSW" H 4500 4900 60  0001 C CNN
F 2 "MX_Alps_Hybrid:MX-1.5U-NoLED" H 4500 5000 60  0001 C CNN
F 3 "" H 4500 5000 60  0000 C CNN
	1    4500 5000
	1    0    0    -1
$EndComp
$Comp
L Device:D D_CAPS
U 1 1 440
P 4150 5250
F 0 "D_CAPS" V 4196 5171 50  0000 R CNN
F 1 "D" V 4095 5171 50  0000 R CNN
F 2 "keyboard_parts:D_SOD123_axial" H 4150 5250 50  0001 C CNN
F 3 "~" H 4150 5250 50  0001 C CNN
	1    4150  5250
	0    -1   -1   0
$EndComp
Wire Wire Line
	4200 5000 4150 5000
Wire Wire Line
	4150 5000 4150 5100
Connection ~ 4800 5000
Connection ~ 4150 5400

$Comp
L keyboard_parts:KEYSW K_&amp;DIAMS;
U 1 1 451
P 5500 5000
F 0 "K_&amp;DIAMS;" H 5500 5233 60  0000 C CNN
F 1 "KEYSW" H 5500 4900 60  0001 C CNN
F 2 "MX_Alps_Hybrid:MX-1.25U-NoLED" H 5500 5000 60  0001 C CNN
F 3 "" H 5500 5000 60  0000 C CNN
	1    5500 5000
	1    0    0    -1
$EndComp
$Comp
L Device:D D_&amp;DIAMS;
U 1 1 450
P 5150 5250
F 0 "D_&amp;DIAMS;" V 5196 5171 50  0000 R CNN
F 1 "D" V 5095 5171 50  0000 R CNN
F 2 "keyboard_parts:D_SOD123_axial" H 5150 5250 50  0001 C CNN
F 3 "~" H 5150 5250 50  0001 C CNN
	1    5150  5250
	0    -1   -1   0
$EndComp
Wire Wire Line
	5200 5000 5150 5000
Wire Wire Line
	5150 5000 5150 5100
Connection ~ 5800 5000
Connection ~ 5150 5400

$Comp
L keyboard_parts:KEYSW K_FUNCTION
U 1 1 461
P 6500 5000
F 0 "K_FUNCTION" H 6500 5233 60  0000 C CNN
F 1 "KEYSW" H 6500 4900 60  0001 C CNN
F 2 "MX_Alps_Hybrid:MX-1.5U-NoLED" H 6500 5000 60  0001 C CNN
F 3 "" H 6500 5000 60  0000 C CNN
	1    6500 5000
	1    0    0    -1
$EndComp
$Comp
L Device:D D_FUNCTION
U 1 1 460
P 6150 5250
F 0 "D_FUNCTION" V 6196 5171 50  0000 R CNN
F 1 "D" V 6095 5171 50  0000 R CNN
F 2 "keyboard_parts:D_SOD123_axial" H 6150 5250 50  0001 C CNN
F 3 "~" H 6150 5250 50  0001 C CNN
	1    6150  5250
	0    -1   -1   0
$EndComp
Wire Wire Line
	6200 5000 6150 5000
Wire Wire Line
	6150 5000 6150 5100
Connection ~ 6800 5000
Connection ~ 6150 5400

$Comp
L keyboard_parts:KEYSW K_SPACE2
U 1 1 471
P 11500 5000
F 0 "K_SPACE2" H 11500 5233 60  0000 C CNN
F 1 "KEYSW" H 11500 4900 60  0001 C CNN
F 2 "MX_Alps_Hybrid:MX-7U-NoLED" H 11500 5000 60  0001 C CNN
F 3 "" H 11500 5000 60  0000 C CNN
	1    11500 5000
	1    0    0    -1
$EndComp
$Comp
L Device:D D_SPACE2
U 1 1 470
P 11150 5250
F 0 "D_SPACE2" V 11196 5171 50  0000 R CNN
F 1 "D" V 11095 5171 50  0000 R CNN
F 2 "keyboard_parts:D_SOD123_axial" H 11150 5250 50  0001 C CNN
F 3 "~" H 11150 5250 50  0001 C CNN
	1    11150  5250
	0    -1   -1   0
$EndComp
Wire Wire Line
	11200 5000 11150 5000
Wire Wire Line
	11150 5000 11150 5100
Connection ~ 11800 5000
Connection ~ 11150 5400

$Comp
L keyboard_parts:KEYSW K_ALT
U 1 1 481
P 15500 5000
F 0 "K_ALT" H 15500 5233 60  0000 C CNN
F 1 "KEYSW" H 15500 4900 60  0001 C CNN
F 2 "MX_Alps_Hybrid:MX-1.75U-NoLED" H 15500 5000 60  0001 C CNN
F 3 "" H 15500 5000 60  0000 C CNN
	1    15500 5000
	1    0    0    -1
$EndComp
$Comp
L Device:D D_ALT
U 1 1 480
P 15150 5250
F 0 "D_ALT" V 15196 5171 50  0000 R CNN
F 1 "D" V 15095 5171 50  0000 R CNN
F 2 "keyboard_parts:D_SOD123_axial" H 15150 5250 50  0001 C CNN
F 3 "~" H 15150 5250 50  0001 C CNN
	1    15150  5250
	0    -1   -1   0
$EndComp
Wire Wire Line
	15200 5000 15150 5000
Wire Wire Line
	15150 5000 15150 5100
Connection ~ 15800 5000
Connection ~ 15150 5400

$Comp
L keyboard_parts:KEYSW K_HOME
U 1 1 491
P 16500 5000
F 0 "K_HOME" H 16500 5233 60  0000 C CNN
F 1 "KEYSW" H 16500 4900 60  0001 C CNN
F 2 "MX_Alps_Hybrid:MX-1U-NoLED" H 16500 5000 60  0001 C CNN
F 3 "" H 16500 5000 60  0000 C CNN
	1    16500 5000
	1    0    0    -1
$EndComp
$Comp
L Device:D D_HOME
U 1 1 490
P 16150 5250
F 0 "D_HOME" V 16196 5171 50  0000 R CNN
F 1 "D" V 16095 5171 50  0000 R CNN
F 2 "keyboard_parts:D_SOD123_axial" H 16150 5250 50  0001 C CNN
F 3 "~" H 16150 5250 50  0001 C CNN
	1    16150  5250
	0    -1   -1   0
$EndComp
Wire Wire Line
	16200 5000 16150 5000
Wire Wire Line
	16150 5000 16150 5100
Connection ~ 16800 5000
Connection ~ 16150 5400

$Comp
L keyboard_parts:KEYSW K_PGDN
U 1 1 4a1
P 17500 5000
F 0 "K_PGDN" H 17500 5233 60  0000 C CNN
F 1 "KEYSW" H 17500 4900 60  0001 C CNN
F 2 "MX_Alps_Hybrid:MX-1U-NoLED" H 17500 5000 60  0001 C CNN
F 3 "" H 17500 5000 60  0000 C CNN
	1    17500 5000
	1    0    0    -1
$EndComp
$Comp
L Device:D D_PGDN
U 1 1 4a0
P 17150 5250
F 0 "D_PGDN" V 17196 5171 50  0000 R CNN
F 1 "D" V 17095 5171 50  0000 R CNN
F 2 "keyboard_parts:D_SOD123_axial" H 17150 5250 50  0001 C CNN
F 3 "~" H 17150 5250 50  0001 C CNN
	1    17150  5250
	0    -1   -1   0
$EndComp
Wire Wire Line
	17200 5000 17150 5000
Wire Wire Line
	17150 5000 17150 5100
Connection ~ 17800 5000
Connection ~ 17150 5400

$Comp
L keyboard_parts:KEYSW K_END
U 1 1 4b1
P 19500 5000
F 0 "K_END" H 19500 5233 60  0000 C CNN
F 1 "KEYSW" H 19500 4900 60  0001 C CNN
F 2 "MX_Alps_Hybrid:MX-1U-NoLED" H 19500 5000 60  0001 C CNN
F 3 "" H 19500 5000 60  0000 C CNN
	1    19500 5000
	1    0    0    -1
$EndComp
$Comp
L Device:D D_END
U 1 1 4b0
P 19150 5250
F 0 "D_END" V 19196 5171 50  0000 R CNN
F 1 "D" V 19095 5171 50  0000 R CNN
F 2 "keyboard_parts:D_SOD123_axial" H 19150 5250 50  0001 C CNN
F 3 "~" H 19150 5250 50  0001 C CNN
	1    19150  5250
	0    -1   -1   0
$EndComp
Wire Wire Line
	19200 5000 19150 5000
Wire Wire Line
	19150 5000 19150 5100
Connection ~ 19800 5000
Connection ~ 19150 5400

Wire Wire Line
	1150 5400 19150 5400

Wire Wire Line
	1800 5000 1800 1000

Wire Wire Line
	2800 5000 2800 1000

Wire Wire Line
	3800 -350 3800 1000

Wire Wire Line
	4800 5000 4800 1000

Wire Wire Line
	5800 5000 5800 1000

Wire Wire Line
	6800 5000 6800 1000

Wire Wire Line
	7800 4000 7800 1000

Wire Wire Line
	8800 4000 8800 1000

Wire Wire Line
	9800 4000 9800 1000

Wire Wire Line
	10800 4000 10800 1000

Wire Wire Line
	11800 5000 11800 1000

Wire Wire Line
	12800 4000 12800 1000

Wire Wire Line
	13800 4000 13800 1000

Wire Wire Line
	14800 4000 14800 1000

Wire Wire Line
	15800 5000 15800 1000

Wire Wire Line
	16800 5000 16800 1000

Wire Wire Line
	17800 5000 17800 1000

Wire Wire Line
	18800 -350 18800 1000

Wire Wire Line
	19800 5000 19800 1000

$EndSCHEMATC
